[2018-09-27 18:41:01.637] [sharedprocess] [info] main {"machineId":"30eeb32d76b26eaede6dfa3fc84fbfb386a25048cc664e57ed7bdf381ff65af3"}
[2018-09-27 18:41:01.772] [sharedprocess] [info] Scanned user extensions: 0
[2018-09-27 18:41:04.114] [sharedprocess] [info] Scanned system extensions: 72
[2018-09-27 18:41:08.860] [sharedprocess] [info] Scanned user extensions: 0
[2018-09-27 18:41:08.865] [sharedprocess] [info] Scanned user extensions: 0
[2018-09-27 18:41:08.939] [sharedprocess] [info] Scanned system extensions: 72
[2018-09-27 18:41:32.181] [sharedprocess] [info] Scanned user extensions: 0
[2018-09-27 18:41:41.648] [sharedprocess] [info] Starting to clean up unused language packs.
[2018-09-27 18:46:32.227] [sharedprocess] [info] Scanned user extensions: 0
[2018-09-27 18:51:32.343] [sharedprocess] [info] Scanned user extensions: 0
[2018-09-27 18:56:35.413] [sharedprocess] [info] Scanned user extensions: 0
[2018-09-27 19:01:36.005] [sharedprocess] [info] Scanned user extensions: 0
[2018-09-27 19:06:36.010] [sharedprocess] [info] Scanned user extensions: 0
